<svg xmlns="http://www.w3.org/2000/svg"
     version="1.1"
     width="100"
     height="100"
     viewbox="0 0 100 100">

  <g class="background">
    <rect x="0" y="0" width="100" height="100" stroke="none" fill="#01161e" />
  </g>

  <g class="texts">
    <rect x="75" y="5" width="20" height="5" stroke="none" fill="#f5f5f5" />
    <rect x="30" y="30" width="40" height="10" stroke="none" fill="#f5f5f5" />
    <rect x="40" y="45" width="20" height="5" stroke="none" fill="#f5f5f5" />
  </g>

  <g class="input">
    <rect x="20" y="55" rx="2" ry="2" width="60" height="9" stroke="black" fill="white" />
    <rect x="35" y="57" width="30" height="5" stroke="none" fill="black" />
  </g>
</svg>
